{
  "annotations": {
    "list": [
      {
        "builtIn": 1,
        "datasource": "-- Grafana --",
        "enable": true,
        "hide": true,
        "iconColor": "rgba(0, 211, 255, 1)",
        "name": "Annotations & Alerts",
        "type": "dashboard"
      }
    ]
  },
  "editable": true,
  "gnetId": null,
  "graphTooltip": 0,
  "links": [],
  "panels": [
    {
      "circleMaxSize": 30,
      "circleMinSize": 2,
      "colors": [
        "#C8F2C2",
        "#96D98D",
        "#56A64B",
        "#37872D"
      ],
      "datasource": "InfluxDB",
      "decimals": 0,
      "esGeoPoint": "geohash",
      "esLocationName": "",
      "esMetric": "metric",
      "gridPos": {
        "h": 14,
        "w": 24,
        "x": 0,
        "y": 0
      },
      "hideEmpty": false,
      "hideZero": false,
      "id": 1,
      "initialZoom": 1,
      "links": [
        {
          "url": "/"
        }
      ],
      "locationData": "geohash",
      "mapCenter": "(0°, 0°)",
      "mapCenterLatitude": 0,
      "mapCenterLongitude": 0,
      "maxDataPoints": 1,
      "mouseWheelZoom": false,
      "options": {},
      "repeat": null,
      "showLegend": true,
      "stickyLabels": false,
      "tableQueryOptions": {
        "geohashField": "geohash",
        "latitudeField": "latitude",
        "longitudeField": "longitude",
        "metricField": "metric",
        "queryType": "geohash"
      },
      "targets": [
        {
          "groupBy": [
            {
              "params": [
                "geohash"
              ],
              "type": "tag"
            }
          ],
          "hide": false,
          "measurement": "geo_vpn_success",
          "orderByTime": "ASC",
          "policy": "default",
          "query": "SELECT sum(\"value\") AS \"metric\" FROM \"geo_vpn_success\" WHERE $timeFilter GROUP BY \"geohash\"",
          "rawQuery": false,
          "refId": "A",
          "resultFormat": "table",
          "select": [
            [
              {
                "params": [
                  "value"
                ],
                "type": "field"
              },
              {
                "params": [],
                "type": "sum"
              },
              {
                "params": [
                  "metric"
                ],
                "type": "alias"
              }
            ]
          ],
          "tags": []
        }
      ],
      "thresholds": "0,10,50",
      "timeFrom": null,
      "timeShift": null,
      "title": "VPN logins",
      "type": "grafana-worldmap-panel",
      "unitPlural": "",
      "unitSingle": "",
      "unitSingular": "",
      "valueName": "total"
    },
    {
      "circleMaxSize": 30,
      "circleMinSize": 2,
      "colors": [
        "#FFA6B0",
        "#FF7383",
        "#E02F44",
        "#C4162A"
      ],
      "datasource": "InfluxDB",
      "decimals": 0,
      "esGeoPoint": "geohash",
      "esLocationName": "",
      "esMetric": "metric",
      "gridPos": {
        "h": 14,
        "w": 24,
        "x": 0,
        "y": 0
      },
      "hideEmpty": false,
      "hideZero": false,
      "id": 2,
      "initialZoom": 1,
      "links": [
        {
          "url": "/"
        }
      ],
      "locationData": "geohash",
      "mapCenter": "(0°, 0°)",
      "mapCenterLatitude": 0,
      "mapCenterLongitude": 0,
      "maxDataPoints": 1,
      "mouseWheelZoom": false,
      "options": {},
      "repeat": null,
      "showLegend": true,
      "stickyLabels": false,
      "tableQueryOptions": {
        "geohashField": "geohash",
        "latitudeField": "latitude",
        "longitudeField": "longitude",
        "metricField": "metric",
        "queryType": "geohash"
      },
      "targets": [
        {
          "groupBy": [
            {
              "params": [
                "geohash"
              ],
              "type": "tag"
            }
          ],
          "hide": false,
          "measurement": "geo_vpn_fail",
          "orderByTime": "ASC",
          "policy": "default",
          "query": "SELECT sum(\"value\") AS \"metric\" FROM \"geo_vpn_fail\" WHERE $timeFilter GROUP BY \"geohash\"",
          "rawQuery": false,
          "refId": "A",
          "resultFormat": "table",
          "select": [
            [
              {
                "params": [
                  "value"
                ],
                "type": "field"
              },
              {
                "params": [],
                "type": "sum"
              },
              {
                "params": [
                  "metric"
                ],
                "type": "alias"
              }
            ]
          ],
          "tags": []
        }
      ],
      "thresholds": "0,10,50",
      "timeFrom": null,
      "timeShift": null,
      "title": "VPN failed logins",
      "type": "grafana-worldmap-panel",
      "unitPlural": "",
      "unitSingle": "",
      "unitSingular": "",
      "valueName": "total"
    }
  ],
  "refresh": "5s",
  "schemaVersion": 19,
  "style": "dark",
  "tags": [],
  "templating": {
    "list": []
  },
  "time": {
    "from": "now-6h",
    "to": "now"
  },
  "timepicker": {
    "refresh_intervals": [
      "5s",
      "10s",
      "30s",
      "1m",
      "5m",
      "15m",
      "30m",
      "1h",
      "2h",
      "1d"
    ],
    "time_options": [
      "5m",
      "15m",
      "1h",
      "6h",
      "12h",
      "24h",
      "2d",
      "7d",
      "30d"
    ]
  },
  "timezone": "",
  "title": "Network monitoring",
  "uid": "t4JTYVmZz",
  "version": 1
}
